<svg width="50" height="50" viewBox="0 0 50 50" fill="none" xmlns="http://www.w3.org/2000/svg">
<g clip-path="url(#clip0)">
<path d="M40.2502 18.7215C41.3866 17.5739 42.0898 15.9967 42.0898 14.2578C42.0898 10.7577 39.2423 7.91016 35.7422 7.91016C32.2421 7.91016 29.3945 10.7577 29.3945 14.2578C29.3945 15.9967 30.0978 17.5739 31.2342 18.7215C27.8342 20.3929 25.4883 23.8922 25.4883 27.9297V32.8125C25.4883 33.6215 26.1441 34.2773 26.9531 34.2773H44.5312C45.3402 34.2773 45.9961 33.6215 45.9961 32.8125V27.9297C45.9961 23.8922 43.6502 20.3929 40.2502 18.7215ZM32.3242 14.2578C32.3242 12.3731 33.8575 10.8398 35.7422 10.8398C37.6269 10.8398 39.1602 12.3731 39.1602 14.2578C39.1602 16.1425 37.6269 17.6758 35.7422 17.6758C33.8575 17.6758 32.3242 16.1425 32.3242 14.2578ZM43.0664 31.3477H28.418V27.9297C28.418 23.8911 31.7036 20.6055 35.7422 20.6055C39.7808 20.6055 43.0664 23.8911 43.0664 27.9297V31.3477Z" fill="white"/>
<path d="M18.6523 37.807V36.8164C18.6523 36.0074 17.9965 35.3516 17.1875 35.3516H5.46875C4.65977 35.3516 4.00391 36.0074 4.00391 36.8164V48.5352C4.00391 49.3441 4.65977 50 5.46875 50H17.1875C17.9965 50 18.6523 49.3441 18.6523 48.5352V41.9431L20.6503 39.9451C21.2224 39.373 21.2224 38.4456 20.6503 37.8735C20.102 37.3251 19.2277 37.3039 18.6523 37.807ZM15.7227 47.0703H6.93359V38.2812H15.7227V40.7296L14.0902 42.362L12.3639 40.6357C11.7919 40.0637 10.8644 40.0637 10.2923 40.6357C9.72021 41.2078 9.72021 42.1353 10.2923 42.7073L13.0544 45.4694C13.3404 45.7555 13.7153 45.8985 14.0901 45.8985C14.4649 45.8985 14.8399 45.7556 15.1259 45.4694L15.7225 44.8729V47.0703H15.7227Z" fill="white"/>
<path d="M18.6523 20.1312V19.1406C18.6523 18.3316 17.9965 17.6758 17.1875 17.6758H5.46875C4.65977 17.6758 4.00391 18.3316 4.00391 19.1406V30.8594C4.00391 31.6684 4.65977 32.3242 5.46875 32.3242H17.1875C17.9965 32.3242 18.6523 31.6684 18.6523 30.8594V24.2673L20.6503 22.2693C21.2224 21.6973 21.2224 20.7698 20.6503 20.1978C20.102 19.6493 19.2277 19.6281 18.6523 20.1312ZM15.7227 29.3945H6.93359V20.6055H15.7227V23.0538L14.0902 24.6862L12.3639 22.96C11.7919 22.3879 10.8644 22.3879 10.2923 22.96C9.72021 23.532 9.72021 24.4595 10.2923 25.0315L13.0544 27.7937C13.3404 28.0797 13.7153 28.2228 14.0901 28.2228C14.4649 28.2228 14.8399 28.0798 15.1259 27.7937L15.7225 27.1971V29.3945H15.7227Z" fill="white"/>
<path d="M18.6523 2.45547V1.46484C18.6523 0.655859 17.9965 0 17.1875 0H5.46875C4.65977 0 4.00391 0.655859 4.00391 1.46484V13.1836C4.00391 13.9926 4.65977 14.6484 5.46875 14.6484H17.1875C17.9965 14.6484 18.6523 13.9926 18.6523 13.1836V6.5915L20.6503 4.59355C21.2224 4.02148 21.2224 3.09404 20.6503 2.52197C20.102 1.97354 19.2277 1.95234 18.6523 2.45547ZM15.7227 11.7188H6.93359V2.92969H15.7227V5.37803L14.0902 7.01045L12.3639 5.28418C11.7919 4.71211 10.8644 4.71211 10.2923 5.28418C9.72021 5.85625 9.72021 6.78369 10.2923 7.35576L13.0544 10.1179C13.3404 10.4039 13.7153 10.547 14.0901 10.547C14.4649 10.547 14.8399 10.404 15.1259 10.1179L15.7227 9.52119V11.7188Z" fill="white"/>
</g>
<defs>
<clipPath id="clip0">
<rect width="50" height="50" fill="white"/>
</clipPath>
</defs>
</svg>
