{
    "Header": {

        "title": "We are a Landing Page",
        "paragraph": "Lorem ipsum dolor sit amet, consectetur adipiscing elit. Duis sed dapibus leo nec ornare diam sed commodo nibh ante facilisis bibendum."

    },
    "About": {
        "title": "On vous dit tout sur notre méthodologie exclusive pour l’achat d’un portefeuille de courtage d’assurance",
        "Why": [
            "On a discuté avec des banques pour vous faciliter le financement",
            "On vous donne une réponse en 5 jours sur votre offre"
        ],
        "Why2": [
            "On a organisé chaque dossier à partir des documents du vendeur",
            "On a préparé toute la documentation juridique"
        ]
    },
    "Profiter": {
        "title": "Profitez de conditions privilégiées, négociées par vos fournisseurs",
        "child": "Demandez à votre interlocuteur commercial habituel",
        "content": ["april.png", "netvox.png"]
    },
    "Services": [{
            "icon": "fa fa-wordpress",
            "name": "Lorem ipsum dolor",
            "text": "Lorem ipsum dolor sit amet, consectetur adipiscing elit. Duis sed dapibus leo nec ornare diam sedasd commodo nibh ante facilisis bibendum dolor feugiat at."
        },
        {
            "icon": "fa fa-cart-arrow-down",
            "name": "Consectetur adipiscing",
            "text": "Lorem ipsum dolor sit amet, consectetur adipiscing elit. Duis sed dapibus leo nec ornare diam sedasd commodo nibh ante facilisis bibendum dolor feugiat at."
        },
        {
            "icon": "fa fa-cloud-download",
            "name": "Lorem ipsum dolor",
            "text": "Lorem ipsum dolor sit amet, consectetur adipiscing elit. Duis sed dapibus leo nec ornare diam sedasd commodo nibh ante facilisis bibendum dolor feugiat at."
        },
        {
            "icon": "fa fa-language",
            "name": "Consectetur adipiscing",
            "text": "Lorem ipsum dolor sit amet, consectetur adipiscing elit. Duis sed dapibus leo nec ornare diam sedasd commodo nibh ante facilisis bibendum dolor feugiat at."
        },
        {
            "icon": "fa fa-plane",
            "name": "Lorem ipsum dolor",
            "text": "Lorem ipsum dolor sit amet, consectetur adipiscing elit. Duis sed dapibus leo nec ornare diam sedasd commodo nibh ante facilisis bibendum dolor feugiat at."
        },
        {
            "icon": "fa fa-pie-chart",
            "name": "Consectetur adipiscing",
            "text": "Lorem ipsum dolor sit amet, consectetur adipiscing elit. Duis sed dapibus leo nec ornare diam sedasd commodo nibh ante facilisis bibendum dolor feugiat at."
        }


    ],
    "Testimonials": [{
            "img": "img/testimonials/01.jpg",
            "text": "\"Lorem ipsum dolor sit amet, consectetur adipiscing elit. Duis sed dapibus leo nec ornare diam sedasd commodo nibh ante facilisis bibendum dolor feugiat at.\"",
            "name": "John Doe"
        },
        {
            "img": "img/testimonials/02.jpg",
            "text": "\"Lorem ipsum dolor sit amet, consectetur adipiscing elit. Duis sed dapibus leo nec ornare diam sedasd commodo nibh ante facilisis bibendum dolor feugiat at.\"",
            "name": "Johnathan Doe"
        },
        {
            "img": "img/testimonials/03.jpg",
            "text": "\"Lorem ipsum dolor sit amet, consectetur adipiscing elit. Duis sed dapibus leo nec ornare diam sedasd commodo nibh ante facilisis bibendum dolor feugiat at.\"",
            "name": "John Doe"
        },
        {
            "img": "img/testimonials/04.jpg",
            "text": "\"Lorem ipsum dolor sit amet, consectetur adipiscing elit. Duis sed dapibus leo nec ornare diam sedasd commodo nibh ante facilisis bibendum dolor feugiat at.\"",
            "name": "Johnathan Doe"
        },
        {
            "img": "img/testimonials/05.jpg",
            "text": "\"Lorem ipsum dolor sit amet, consectetur adipiscing elit. Duis sed dapibus leo nec ornare diam sedasd commodo nibh ante facilisis bibendum dolor feugiat at.\"",
            "name": "John Doe"
        },
        {
            "img": "img/testimonials/06.jpg",
            "text": "\"Lorem ipsum dolor sit amet, consectetur adipiscing elit. Duis sed dapibus leo nec ornare diam sedasd commodo nibh ante facilisis bibendum dolor feugiat at.\"",
            "name": "Johnathan Doe"
        }
    ],
    "Team": [{
            "img": "img/team/01.jpg",
            "name": "John Doe",
            "job": "Director"
        },
        {
            "img": "img/team/02.jpg",
            "name": "Mike Doe",
            "job": "Senior Designer"
        }, {
            "img": "img/team/03.jpg",
            "name": "Jane Doe",
            "job": "Senior Designer"
        },
        {
            "img": "img/team/04.jpg",
            "name": "Karen Doe",
            "job": "Project Manager"
        }
    ],
    "Contact": {
        "address": "4321 California St, San Francisco, CA 12345 ",
        "phone": "+1 123 456 1234",
        "email": "info@company.com",
        "facebook": "fb.com",
        "twitter": "twitter.com",
        "youtube": "youtube.com"
    },
    "Features": {
        "title": "Liste des portefeuilles disponibles",
        "columns": [
            {
                "Header": "Features",
                "accessor": "Features"
            },
            {
                "Header": "Zone géo",
                "accessor": "Zone géo"
            },
            {
                "Header": "Clientèle",
                "accessor": "Clientèle"
            }
            ,
            {
                "Header": "Contrats",
                "accessor": "Contrats"
            },
            {
                "Header": "Commissions",
                "accessor": "Commissions"
            },
            {
                "Header": "Dossier",
                "accessor": "Dossier"
            }
        ]
    },
    "Transactions": [
        {
            "name": "transactions",
            "count": "720"
        },
        {
            "name": "primes",
            "count": "1,100m€"
        },
        {
            "name": "commissions",
            "count": "227m€"
        }
        
    ]

    
}